"id","time","device_name","device_address","accurate","pm1p0","pm2p5","pm4p0","pm10p0"
{% for item in items %}"{{ item.id }}","{{ item.time }}","{{ item.device_name }}","{{ item.device_address }}","{{ item.accurate }}",{{ item.pm1p0 }},{{ item.pm2p5 }},{{ item.pm4p0 }},{{ item.pm10p0 }}
{% endfor %}
